<svg width="18" height="22" viewBox="0 0 18 22" fill="none" xmlns="http://www.w3.org/2000/svg">
<path d="M8.99997 0.928467C13.6157 0.928467 17.3571 4.6699 17.3571 9.28561C17.3571 12.817 14.8757 16.6656 9.97711 20.8725C9.70473 21.1065 9.35745 21.235 8.99836 21.2347C8.63928 21.2343 8.29222 21.1052 8.02025 20.8708L7.69625 20.5896C3.01454 16.4925 0.642822 12.7382 0.642822 9.28561C0.642822 4.6699 4.38425 0.928467 8.99997 0.928467ZM8.99997 2.21418C7.12451 2.21418 5.32586 2.9592 3.99971 4.28535C2.67356 5.6115 1.92854 7.41015 1.92854 9.28561C1.92854 12.2873 4.11254 15.7459 8.54054 19.6202L8.86025 19.897C8.89913 19.9305 8.9487 19.9488 8.99997 19.9488C9.05124 19.9488 9.10081 19.9305 9.13968 19.897C13.782 15.9096 16.0714 12.3585 16.0714 9.28561C16.0714 8.35698 15.8885 7.43744 15.5331 6.57949C15.1777 5.72155 14.6569 4.942 14.0002 4.28535C13.3436 3.62871 12.564 3.10783 11.7061 2.75246C10.8481 2.39709 9.9286 2.21418 8.99997 2.21418ZM8.99997 6.07132C9.85245 6.07132 10.67 6.40997 11.2728 7.01277C11.8756 7.61556 12.2143 8.43313 12.2143 9.28561C12.2143 10.1381 11.8756 10.9557 11.2728 11.5585C10.67 12.1612 9.85245 12.4999 8.99997 12.4999C8.14748 12.4999 7.32992 12.1612 6.72712 11.5585C6.12433 10.9557 5.78568 10.1381 5.78568 9.28561C5.78568 8.43313 6.12433 7.61556 6.72712 7.01277C7.32992 6.40997 8.14748 6.07132 8.99997 6.07132ZM8.99997 7.35704C8.48848 7.35704 7.99794 7.56023 7.63626 7.9219C7.27458 8.28358 7.07139 8.77412 7.07139 9.28561C7.07139 9.7971 7.27458 10.2876 7.63626 10.6493C7.99794 11.011 8.48848 11.2142 8.99997 11.2142C9.51145 11.2142 10.002 11.011 10.3637 10.6493C10.7253 10.2876 10.9285 9.7971 10.9285 9.28561C10.9285 8.77412 10.7253 8.28358 10.3637 7.9219C10.002 7.56023 9.51145 7.35704 8.99997 7.35704Z" fill="#FFD900"/>
</svg>
