<svg width="11" height="18" viewBox="0 0 11 18" fill="none" xmlns="http://www.w3.org/2000/svg">
<path d="M0.864077 9L9.86408 18L11 16.8641L3.13592 9L11 1.13592L9.86408 0L0.864077 9Z" fill="#333333"/>
</svg>
